<svg xmlns="http://www.w3.org/2000/svg" xmlns:xlink="http://www.w3.org/1999/xlink" width="169" height="173" viewBox="0 0 169 173">
  <defs>
    <clipPath id="clip-path">
      <rect id="Rectangle_73" data-name="Rectangle 73" width="169" height="173" transform="translate(3681 4100)" fill="#fff" stroke="#707070" stroke-width="1"/>
    </clipPath>
  </defs>
  <g id="Mask_Group_10" data-name="Mask Group 10" transform="translate(-3681 -4100)" clip-path="url(#clip-path)">
    <rect id="Rectangle_22" data-name="Rectangle 22" width="173.964" height="256" rx="86.982" transform="translate(3594 4273.482) rotate(-90)" fill="#4382f3"/>
  </g>
</svg>
