<svg xmlns="http://www.w3.org/2000/svg" xmlns:xlink="http://www.w3.org/1999/xlink" width="238" height="80" viewBox="0 0 238 80">
  <defs>
    <clipPath id="clip-path">
      <rect id="Rectangle_71" data-name="Rectangle 71" width="238" height="80" transform="translate(3191 4633)" fill="#fff" stroke="#707070" stroke-width="1"/>
    </clipPath>
    <clipPath id="clip-path-2">
      <rect id="Rectangle_21" data-name="Rectangle 21" width="859.555" height="298.347" transform="translate(402.406 571.156)" fill="#3ddb84"/>
    </clipPath>
  </defs>
  <g id="Mask_Group_9" data-name="Mask Group 9" transform="translate(-3191 -4633)" clip-path="url(#clip-path)">
    <g id="Mask_Group_1" data-name="Mask Group 1" transform="translate(2417.168 4061.797)" clip-path="url(#clip-path-2)">
      <g id="Rectangle_17" data-name="Rectangle 17" transform="translate(1131.191 774.806) rotate(90)" fill="none" stroke="#f0f7ce" stroke-width="1.908">
        <rect width="331.949" height="172.437" rx="16.596" stroke="none"/>
        <rect x="0.954" y="0.954" width="330.041" height="170.53" rx="15.642" fill="none"/>
      </g>
      <rect id="Rectangle_22" data-name="Rectangle 22" width="175.139" height="431.741" rx="18.813" transform="translate(-180.471 807.899) rotate(-90)" fill="#4382f3"/>
      <rect id="Rectangle_23" data-name="Rectangle 23" width="261.461" height="220.96" transform="translate(774.193 431.656)" fill="#d6f0ff"/>
    </g>
  </g>
</svg>
